{
    "KPlugin": {
        "Description": "Local transport in and around Munich, Germany.",
        "Description[ca@valencia]": "Transport local a Munich i rodalies, Alemanya.",
        "Description[ca]": "Transport local a Munich i rodalies, Alemanya.",
        "Description[cs]": "Místní doprava v Mnichově a okolí, Německo.",
        "Description[en_GB]": "Local transport in and around Munich, Germany.",
        "Description[es]": "Transporte local de Múnich y alrededores, Alemania.",
        "Description[et]": "Saksamaa Müncheni ja selle ümbruse kohalik transport.",
        "Description[fr]": "Transports régionaux dans la région de Munich, Allemagne.",
        "Description[it]": "Trasporto locale a Monaco e dintorni, Germania.",
        "Description[ko]": "독일 뮌헨 및 광역권 대중 교통입니다.",
        "Description[nl]": "Lokaal transport in en om München, Duitsland.",
        "Description[pl]": "Transport lokalny w i wokół Monachium, Niemcy.",
        "Description[pt]": "Transportes locais na região de Munique, Alemanha.",
        "Description[pt_BR]": "Transporte local na região de Munique, Alemanha.",
        "Description[sv]": "Lokal transportoperatör i och omkring München, Tyskland.",
        "Description[uk]": "Місцевий транспорт у Мюнхені і околицях, Німеччина.",
        "Description[x-test]": "xxLocal transport in and around Munich, Germany.xx",
        "Name": "Münchener Verkehrs- und Tarifverbund (MVV)",
        "Name[ca@valencia]": "Münchener Verkehrs- und Tarifverbund (MVV)",
        "Name[ca]": "Münchener Verkehrs- und Tarifverbund (MVV)",
        "Name[cs]": "Münchener Verkehrs- und Tarifverbund (MVV)",
        "Name[de]": "Münchener Verkehrs- und Tarifverbund (MVV)",
        "Name[en_GB]": "Münchener Verkehrs- und Tarifverbund (MVV)",
        "Name[es]": "Münchener Verkehrs- und Tarifverbund (MVV)",
        "Name[et]": "Münchener Verkehrs- und Tarifverbund (MVV)",
        "Name[fr]": "Münchener Verkehrs- und Tarifverbund (MVV)",
        "Name[it]": "Münchener Verkehrs- und Tarifverbund (MVV)",
        "Name[ko]": "뮌헨 교통 조합(MVV)",
        "Name[nl]": "Münchener Verkehrs- und Tarifverbund (MVV)",
        "Name[pl]": "Münchener Verkehrs- und Tarifverbund (MVV)",
        "Name[pt]": "Münchener Verkehrs- und Tarifverbund (MVV)",
        "Name[pt_BR]": "Münchener Verkehrs- und Tarifverbund (MVV)",
        "Name[sk]": "Münchener Verkehrs- und Tarifverbund (MVV)",
        "Name[sv]": "Münchener Verkehrs- und Tarifverbund (MVV)",
        "Name[uk]": "Münchener Verkehrs- und Tarifverbund (MVV)",
        "Name[x-test]": "xxMünchener Verkehrs- und Tarifverbund (MVV)xx"
    },
    "filter": {
        "geo": [
            [
                10.7372,
                48.5128
            ],
            [
                11.1456,
                47.7161
            ],
            [
                12.6185,
                48.1111
            ],
            [
                12.0896,
                48.8074
            ]
        ]
    },
    "options": {
        "endpoint": "https://efa.mvv-muenchen.de/mobile/"
    },
    "supportedLanguages": [
        "en",
        "de"
    ],
    "type": "efa"
}
