{
    "KPlugin": {
        "Description": "Local transport in the Berlin and Brandenburg regions of Germany.",
        "Description[ca@valencia]": "Transport local a les regions de Berlin i Brandenburg d'Alemanya.",
        "Description[ca]": "Transport local a les regions de Berlin i Brandenburg d'Alemanya.",
        "Description[en_GB]": "Local transport in the Berlin and Brandenburg regions of Germany.",
        "Description[es]": "Transporte local de las regiones de Berlín y Brandeburgo, Alemania.",
        "Description[et]": "Saksamaa Berliini ja Brandenburgi regiooni kohalik transport.",
        "Description[fr]": "Transports régionaux dans les régions de Berlin et du Brandenbourg, Allemagne.",
        "Description[it]": "Trasporto locale nelle regioni di Berlino e del Brandenburgo della Germania.",
        "Description[ko]": "독일 베를린 및 브란덴부르크 지역 대중 교통입니다.",
        "Description[nl]": "Lokaal transport in de regio's Berlijn en Brandenburg in Duitsland.",
        "Description[pl]": "Lokalny przedsiębiorstwo komunikacyjne w Berlinie oraz regionach Brandenburgu w Niemczech.",
        "Description[pt]": "Transportes locais nas regiões de Berlim e Branderburgo, Alemanha.",
        "Description[pt_BR]": "Transporte local nas regiões de Berlim e Brandemburgo na Alemanha.",
        "Description[sv]": "Lokal transportoperatör i Berlin- och Brandenburg-områdena i Tyskland.",
        "Description[uk]": "Місцевий транспорт у регіонах Берлін та Бранденбург, Німеччина.",
        "Description[x-test]": "xxLocal transport in the Berlin and Brandenburg regions of Germany.xx",
        "Name": "Verkehrsverbund Berlin-Brandenburg (VBB)",
        "Name[ca@valencia]": "Verkehrsverbund Berlin-Brandenburg (VBB)",
        "Name[ca]": "Verkehrsverbund Berlin-Brandenburg (VBB)",
        "Name[cs]": "Verkehrsverbund Berlin-Brandenburg (VBB)",
        "Name[de]": "Verkehrsverbund Berlin-Brandenburg (VBB)",
        "Name[en_GB]": "Verkehrsverbund Berlin-Brandenburg (VBB)",
        "Name[es]": "Verkehrsverbund Berlin-Brandenburg (VBB)",
        "Name[et]": "Verkehrsverbund Berlin-Brandenburg (VBB)",
        "Name[fr]": "Verkehrsverbund Berlin-Brandenburg (VBB)",
        "Name[it]": "Verkehrsverbund Berlin-Brandenburg (VBB)",
        "Name[ko]": "베를린 브란덴부르크 교통 조합(VBB)",
        "Name[nl]": "Verkehrsverbund Berlin-Brandenburg (VBB)",
        "Name[pl]": "Verkehrsverbund Berlin-Brandenburg (VBB)",
        "Name[pt]": "Verkehrsverbund Berlin-Brandenburg (VBB)",
        "Name[pt_BR]": "Verkehrsverbund Berlin-Brandenburg (VBB)",
        "Name[sk]": "Verkehrsverbund Berlin-Brandenburg (VBB)",
        "Name[sv]": "Verkehrsverbund Berlin-Brandenburg (VBB)",
        "Name[uk]": "Verkehrsverbund Berlin-Brandenburg (VBB)",
        "Name[x-test]": "xxVerkehrsverbund Berlin-Brandenburg (VBB)xx"
    },
    "filter": {
        "geo": [
            [
                11.05,
                53.255
            ],
            [
                14.45,
                53.658
            ],
            [
                14.908,
                51.4295
            ],
            [
                13.149,
                51.25
            ]
        ]
    },
    "options": {
        "aid": "hafas-vbb-apps",
        "clientId": "VBB",
        "clientType": "AND",
        "endpoint": "https://fahrinfo.vbb.de/bin/mgate.exe",
        "lineModeMap": {
            "1": "RapidTransit",
            "16": "Ferry",
            "2": "Metro",
            "32": "LongDistanceTrain",
            "4": "Tramway",
            "64": "LocalTrain",
            "8": "Bus"
        },
        "locationIdentifierType": "vbb",
        "micMacSalt": "5243544a4d3266467846667878516649",
        "version": "1.14"
    },
    "supportedLanguages": [
        "en",
        "de"
    ],
    "type": "hafas_mgate"
}
