{
    "KPlugin": {
        "Description": "Local transport in the Rhein-Main area, Germany.",
        "Description[ca@valencia]": "Transport local a l'àrea de Rhein-Main, Alemanya.",
        "Description[ca]": "Transport local a l'àrea de Rhein-Main, Alemanya.",
        "Description[cs]": "Místní doprava v oblasti Porýní-Main, Německo.",
        "Description[en_GB]": "Local transport in the Rhein-Main area, Germany.",
        "Description[es]": "Transporte local del área de Rin-Meno, Alemania.",
        "Description[et]": "Saksamaa Reini-Maini piirkonna kohalik transport.",
        "Description[fr]": "Transports régionaux dans la région Rhin-Main, Allemagne.",
        "Description[it]": "Trasporto locale nell'area Reno-Meno, Germania.",
        "Description[ko]": "독일 라인마인 지역 대중 교통입니다.",
        "Description[nl]": "Lokaal transport in het gebied Rhein-Main, Duitsland.",
        "Description[pl]": "Transport lokalny w obszarze Renu-Menu, Niemcy.",
        "Description[pt]": "Transportes locais na região de Rhein-Main, Alemanha.",
        "Description[pt_BR]": "Transporte local na área de Reno-Meno, Alemanha.",
        "Description[sv]": "Lokal transportoperatör i Rhein-Main-området, Tyskland.",
        "Description[uk]": "Місцевий транспорт у регіоні Рейн-Майн, Німеччина.",
        "Description[x-test]": "xxLocal transport in the Rhein-Main area, Germany.xx",
        "Name": "Rhein-Main-Verkehrsverbund (RMV)",
        "Name[ca@valencia]": "Rhein-Main-Verkehrsverbund (RMV)",
        "Name[ca]": "Rhein-Main-Verkehrsverbund (RMV)",
        "Name[cs]": "Rhein-Main-Verkehrsverbund (RMV)",
        "Name[de]": "Rhein-Main-Verkehrsverbund (RMV)",
        "Name[en_GB]": "Rhein-Main-Verkehrsverbund (RMV)",
        "Name[es]": "Rhein-Main-Verkehrsverbund (RMV)",
        "Name[et]": "Rhein-Main-Verkehrsverbund (RMV)",
        "Name[fr]": "Rhein-Main-Verkehrsverbund (RMV)",
        "Name[it]": "Rhein-Main-Verkehrsverbund (RMV)",
        "Name[ko]": "라인마인 교통 조합(RMV)",
        "Name[nl]": "Rhein-Main-Verkehrsverbund (RMV)",
        "Name[pl]": "Rhein-Main-Verkehrsverbund (RMV)",
        "Name[pt]": "Rhein-Main-Verkehrsverbund (RMV)",
        "Name[pt_BR]": "Rhein-Main-Verkehrsverbund (RMV)",
        "Name[sk]": "Rhein-Main-Verkehrsverbund (RMV)",
        "Name[sv]": "Rhein-Main-Verkehrsverbund (RMV)",
        "Name[uk]": "Rhein-Main-Verkehrsverbund (RMV)",
        "Name[x-test]": "xxRhein-Main-Verkehrsverbund (RMV)xx"
    },
    "filter": {
        "geo": [
            [
                8.306,
                50.9957
            ],
            [
                10.219,
                50.6698
            ],
            [
                9.0166,
                49.3629
            ],
            [
                8.2507,
                49.4933
            ],
            [
                7.638,
                50.1679
            ]
        ]
    },
    "options": {
        "aid": "x0k4ZR33ICN9CWmj",
        "clientId": "RMV",
        "clientName": "webapp",
        "clientType": "WEB",
        "endpoint": "https://www.rmv.de/auskunft/bin/jp/mgate.exe",
        "lineModeMap": {
            "1": "LongDistanceTrain",
            "128": "Bus",
            "16": "Metro",
            "2": "LongDistanceTrain",
            "32": "Tramway",
            "4": "LocalTrain",
            "64": "Bus",
            "8": "RapidTransit"
        },
        "locationIdentifierType": "rmv",
        "standardLocationIdentifierCountries": [
            54,
            55,
            81
        ],
        "standardLocationIdentifierType": "ibnr",
        "version": "1.18"
    },
    "supportedLanguages": [
        "en",
        "de",
        "fr"
    ],
    "type": "hafas_mgate"
}
