{
    "KPlugin": {
        "Description": "Public transport in Hamburg, Germany.",
        "Description[ca@valencia]": "Transport públic a Hamburg, Alemanya.",
        "Description[ca]": "Transport públic a Hamburg, Alemanya.",
        "Description[en_GB]": "Public transport in Hamburg, Germany.",
        "Description[es]": "Transporte público de Hamburgo, Alemania.",
        "Description[et]": "Saksamaa Hamburgi ühistransport.",
        "Description[fr]": "Transports publics à Hambourg, Allemagne.",
        "Description[it]": "Trasporto pubblico ad Amburgo, Germania.",
        "Description[ko]": "독일 함부르크의 대중 교통입니다.",
        "Description[nl]": "Lokaal openbaar vervoer in Hamburg, Duitsland.",
        "Description[pt]": "Transportes públicos em Hamburgo, Alemanha.",
        "Description[pt_BR]": "Transporte público em Hamburgo, Alemanha.",
        "Description[sv]": "Kollektivtrafik i Hamburg, Tyskland.",
        "Description[uk]": "Дані щодо громадського транспорту у Гамбурзі, Німеччина.",
        "Description[x-test]": "xxPublic transport in Hamburg, Germany.xx",
        "Name": "Hamburger Verkehrsverbund (HVV)",
        "Name[ca@valencia]": "Hamburger Verkehrsverbund (HVV)",
        "Name[ca]": "Hamburger Verkehrsverbund (HVV)",
        "Name[en_GB]": "Hamburger Verkehrsverbund (HVV)",
        "Name[es]": "Hamburger Verkehrsverbund (HVV)",
        "Name[et]": "Hamburger Verkehrsverbund (HVV)",
        "Name[fr]": "Hamburger Verkehrsverbund (HVV)",
        "Name[it]": "Hamburger Verkehrsverbund (HVV)",
        "Name[ko]": "함부르크 교통 조합(HVV)",
        "Name[nl]": "Hamburger Verkehrsverbund (HVV)",
        "Name[pt]": "Hamburger Verkehrsverbund (HVV)",
        "Name[pt_BR]": "Hamburger Verkehrsverbund (HVV)",
        "Name[sv]": "Hamburger Verkehrsverbund (HVV)",
        "Name[uk]": "Hamburger Verkehrsverbund (HVV)",
        "Name[x-test]": "xxHamburger Verkehrsverbund (HVV)xx"
    },
    "filter": {
        "geo": [
            [
                9.6276,
                53.9426
            ],
            [
                9.5665,
                53.2509
            ],
            [
                10.5173,
                53.1703
            ],
            [
                10.5173,
                53.8864
            ]
        ]
    },
    "options": {
        "aid": "andcXUmC9Mq6hjrwDIGd2l3oiaMrTUzyH",
        "clientId": "HVV",
        "clientName": "HVVPROD_ADHOC",
        "clientType": "AND",
        "endpoint": "https://hvv-app.hafas.de/bin/mgate.exe",
        "lineModeMap": {
            "1": "Metro",
            "1024": "Taxi",
            "128": "Bus",
            "16": "LocalTrain",
            "2": "RapidTransit",
            "2048": "Coach",
            "256": "BusRapidTransit",
            "32": "Ferry",
            "4": "Train",
            "4096": "LongDistanceTrain",
            "64": "LongDistanceTrain",
            "8": "LocalTrain"
        },
        "micMacSalt": "70716A4D33694B45474F416859625837366B3952357A757476",
        "version": "1.16"
    },
    "supportedLanguages": [
        "en",
        "de"
    ],
    "timezone": "Europe/Berlin",
    "type": "hafas_mgate"
}
