{
    "KPlugin": {
        "Description": "Local transport in and around Aachen, Germany.",
        "Description[ca@valencia]": "Transport local a Aachen i rodalies, Alemanya.",
        "Description[ca]": "Transport local a Aachen i rodalies, Alemanya.",
        "Description[cs]": "Místní doprava v Cáchách a okolí, Německo.",
        "Description[en_GB]": "Local transport in and around Aachen, Germany.",
        "Description[es]": "Transporte local de Aquisgrán y alrededores, Alemania.",
        "Description[et]": "Saksamaa Aacheni ja selle ümbruse kohalik transport.",
        "Description[fr]": "Transports régionaux dans la région d'Aachen, Allemagne.",
        "Description[it]": "Trasporto locale ad Aquisgrana e dintorni, Germania.",
        "Description[ko]": "독일 아헨 및 광역권 대중 교통입니다.",
        "Description[nl]": "Lokaal transport in en om Aken, Duitsland.",
        "Description[pl]": "Transport lokalny w i wokół Akwizgranu, Niemcy.",
        "Description[pt]": "Transportes locais na região de Aachen, Alemanha.",
        "Description[pt_BR]": "Transporte local na região de Aachen, Alemanha.",
        "Description[sv]": "Lokal transportoperatör i och omkring Aachen, Tyskland.",
        "Description[uk]": "Місцевий транспорт у Аахені і околицях, Німеччина.",
        "Description[x-test]": "xxLocal transport in and around Aachen, Germany.xx",
        "Name": "Aachener Verkehrsverbund (AVV)",
        "Name[ca@valencia]": "Aachener Verkehrsverbund (AVV)",
        "Name[ca]": "Aachener Verkehrsverbund (AVV)",
        "Name[cs]": "Aachener Verkehrsverbund (AVV)",
        "Name[de]": "Aachener Verkehrsverbund (AVV)",
        "Name[en_GB]": "Aachener Verkehrsverbund (AVV)",
        "Name[es]": "Aachener Verkehrsverbund (AVV)",
        "Name[et]": "Aachener Verkehrsverbund (AVV)",
        "Name[fr]": "Aachener Verkehrsverbund (AVV)",
        "Name[it]": "Aachener Verkehrsverbund (AVV)",
        "Name[ko]": "아헨 교통 조합(AVV)",
        "Name[nl]": "Aachener Verkehrsverbund (AVV)",
        "Name[pl]": "Aachener Verkehrsverbund (AVV)",
        "Name[pt]": "Aachener Verkehrsverbund (AVV)",
        "Name[pt_BR]": "Aachener Verkehrsverbund (AVV)",
        "Name[sk]": "Aachener Verkehrsverbund (AVV)",
        "Name[sv]": "Aachener Verkehrsverbund (AVV)",
        "Name[uk]": "Aachener Verkehrsverbund (AVV)",
        "Name[x-test]": "xxAachener Verkehrsverbund (AVV)xx",
        "Name[zh_TW]": "Aachener Verkehrsverbund (AVV)"
    },
    "filter": {
        "geo": [
            [
                5.8488,
                51.1879
            ],
            [
                5.8194,
                50.7024
            ],
            [
                6.3442,
                50.5655
            ],
            [
                6.5723,
                51.1912
            ]
        ]
    },
    "options": {
        "aid": "4vV1AcH3N511icH",
        "clientId": "AVV_AACHEN",
        "clientType": "WEB",
        "endpoint": "https://auskunft.avv.de/bin/mgate.exe",
        "lineModeMap": {
            "1": "LocalTrain",
            "128": "Bus",
            "16": "RapidTransit",
            "2": "LongDistanceTrain",
            "256": "Bus",
            "32": "Metro",
            "4": "LongDistanceTrain",
            "512": "RapidTransit",
            "64": "Tramway",
            "8": "Bus"
        },
        "standardLocationIdentifierCountries": [
            84
        ],
        "standardLocationIdentifierType": "ibnr",
        "version": "1.16"
    },
    "supportedLanguages": [
        "en",
        "de"
    ],
    "type": "hafas_mgate"
}
