{
    "KPlugin": {
        "Description": "Local public transport in and around Münster, Germany.",
        "Description[ca@valencia]": "Transport públic local a Münster i rodalies, Alemanya.",
        "Description[ca]": "Transport públic local a Münster i rodalies, Alemanya.",
        "Description[en_GB]": "Local public transport in and around Münster, Germany.",
        "Description[es]": "Transporte público local de Münster y alrededores, Alemania.",
        "Description[et]": "Saksamaa Münsteri ja selle ümbruse kohalik ühistransport.",
        "Description[fr]": "Transports régionaux dans la région de Münster, Allemagne.",
        "Description[it]": "Trasporto locale a Münster e dintorni, Germania.",
        "Description[ko]": "독일 뮌스터 및 광역권 대중 교통입니다.",
        "Description[nl]": "Lokaal openbaar vervoer in en om Münster, Duitsland.",
        "Description[pt]": "Transportes públicos locais na região de Münster, Alemanha.",
        "Description[pt_BR]": "Transporte público local na região de Münster, Alemanha.",
        "Description[sv]": "Lokal transportoperatör i och omkring Münster, Tyskland.",
        "Description[uk]": "Місцевий транспорт у Мюнстері і околицях, Німеччина.",
        "Description[x-test]": "xxLocal public transport in and around Münster, Germany.xx",
        "Name": "Münster, Germany",
        "Name[ca@valencia]": "Münster, Alemanya",
        "Name[ca]": "Münster, Alemanya",
        "Name[de]": "Münster, Deutschland",
        "Name[en_GB]": "Münster, Germany",
        "Name[es]": "Münster, Alemania",
        "Name[et]": "Münster, Saksamaa",
        "Name[fr]": "Münster, Allemagne",
        "Name[it]": "Münster, Germania",
        "Name[ko]": "독일 뮌스터",
        "Name[nl]": "Münster, Duitsland",
        "Name[pt]": "Münster, Alemanha",
        "Name[pt_BR]": "Münster, Alemanha",
        "Name[sv]": "Münster, Tyskland",
        "Name[uk]": "Мюнстер, Німеччина",
        "Name[x-test]": "xxMünster, Germanyxx"
    },
    "attribution": {
        "name": "Code for Münster",
        "url": "https://codeformuenster.org/"
    },
    "filter": {
        "geo": [
            [
                6.245927900000001,
                52.483627500000004
            ],
            [
                8.3234834,
                52.483627500000004
            ],
            [
                8.3234834,
                51.4769823
            ],
            [
                6.245927900000001,
                51.4769823
            ]
        ]
    },
    "options": {
        "endpoint": "https://api.digitransit.codeformuenster.org/routing/v1/routers/cfm/"
    },
    "timezone": "Europe/Berlin",
    "type": "otp_graphql"
}
