{
    "KPlugin": {
        "Description": "Joint service of European national railway operators.",
        "Description[ca@valencia]": "Servei conjunt dels operadors ferroviaris nacionals europeus.",
        "Description[ca]": "Servei conjunt dels operadors ferroviaris nacionals europeus.",
        "Description[en_GB]": "Joint service of European national railway operators.",
        "Description[es]": "Servicio conjunto europeo de operadores nacionales de ferrocarril.",
        "Description[et]": "Euroopa riiklike raudteeteenuste pakkujate ühisteenus.",
        "Description[fr]": "Alliance d'opérateurs de réseaux ferrés nationaux européens.",
        "Description[it]": "Servizio congiunto degli operatori ferroviari nazionali europei.",
        "Description[ko]": "유럽 국영 철도의 연합 서비스입니다.",
        "Description[nl]": "Gezamenlijke service van Europese nationale spoorwegbedrijven.",
        "Description[pl]": "Połączona usługa europejskich, państwowych operatorów kolejowych",
        "Description[pt]": "Serviço conjunto de operadores de caminhos de ferro nacionais europeus.",
        "Description[pt_BR]": "Serviço conjunto dos operadores ferroviários nacionais europeus.",
        "Description[sv]": "Gemensam tjänst för europeiska nationella järnvägsoperatörer.",
        "Description[uk]": "Загальна служба європейських державних операторів залізниць.",
        "Description[x-test]": "xxJoint service of European national railway operators.xx",
        "Name": "Railteam",
        "Name[ca@valencia]": "Railteam",
        "Name[ca]": "Railteam",
        "Name[cs]": "Railteam",
        "Name[en_GB]": "Railteam",
        "Name[es]": "Railteam",
        "Name[et]": "Railteam",
        "Name[fr]": "Railteam",
        "Name[it]": "Railteam",
        "Name[ko]": "Railteam",
        "Name[nl]": "Railteam",
        "Name[pl]": "Railteam",
        "Name[pt]": "Railteam",
        "Name[pt_BR]": "Railteam",
        "Name[sk]": "Railteam",
        "Name[sv]": "Railteam",
        "Name[uk]": "Railteam",
        "Name[x-test]": "xxRailteamxx"
    },
    "filter": {
        "geo": [
            [
                37.8068,
                82.97
            ],
            [
                35.3039,
                33.9542
            ],
            [
                -14.3375,
                34.7885
            ],
            [
                -36.3425,
                86.3072
            ]
        ]
    },
    "options": {
        "endpoint": "http://railteam.hafas.eu/bin/",
        "lineModeMap": {
            "1": "LongDistanceTrain",
            "128": "Metro",
            "16": "RapidTransit",
            "2": "LongDistanceTrain",
            "256": "Tramway",
            "32": "Bus",
            "4": "LocalTrain",
            "64": "Ferry",
            "8": "LocalTrain"
        },
        "locationIdentifierType": "rt",
        "standardLocationIdentifierCountries": [
            51,
            53,
            54,
            55,
            56,
            70,
            71,
            74,
            76,
            80,
            81,
            82,
            83,
            84,
            85,
            86,
            87,
            88
        ],
        "standardLocationIdentifierType": "ibnr"
    },
    "type": "hafas_query"
}
