{
    "KPlugin": {
        "Description": "Public transport in Tunisia.",
        "Description[ca@valencia]": "Transport públic a Tunísia.",
        "Description[ca]": "Transport públic a Tunísia.",
        "Description[en_GB]": "Public transport in Tunisia.",
        "Description[es]": "Transporte público de Túnez.",
        "Description[et]": "Tuneesia ühistransport.",
        "Description[fr]": "Transports publics en Tunisie.",
        "Description[it]": "Trasporto pubblico in Tunisia.",
        "Description[ko]": "튀니지의 대중 교통입니다.",
        "Description[nl]": "Openbaar vervoer in Tunesië.",
        "Description[pt]": "Transportes públicos na Tunísia.",
        "Description[pt_BR]": "Transporte público na Tunísia.",
        "Description[sv]": "Kollektivtrafik i Tunisien.",
        "Description[uk]": "Громадський транспорт у Тунісі.",
        "Description[x-test]": "xxPublic transport in Tunisia.xx",
        "Name": "Société Nationale des Chemins de Fer Tunisiens (SNCFT)",
        "Name[ca@valencia]": "Société Nationale des Chemins de Fer Tunisiens (SNCFT)",
        "Name[ca]": "Société Nationale des Chemins de Fer Tunisiens (SNCFT)",
        "Name[en_GB]": "Société Nationale des Chemins de Fer Tunisiens (SNCFT)",
        "Name[es]": "Société Nationale des Chemins de Fer Tunisiens (SNCFT)",
        "Name[et]": "Société Nationale des Chemins de Fer Tunisiens (SNCFT)",
        "Name[fr]": "Société Nationale des Chemins de Fer Tunisiens (SNCFT)",
        "Name[it]": "Société Nationale des Chemins de Fer Tunisiens (SNCFT)",
        "Name[ko]": "튀니지 국유 철도(SNCFT)",
        "Name[nl]": "Société Nationale des Chemins de Fer Tunisiens (SNCFT)",
        "Name[pt]": "Société Nationale des Chemins de Fer Tunisiens (SNCFT)",
        "Name[pt_BR]": "Société Nationale des Chemins de Fer Tunisiens (SNCFT)",
        "Name[sv]": "Société Nationale des Chemins de Fer Tunisiens (SNCFT)",
        "Name[uk]": "Société Nationale des Chemins de Fer Tunisiens (SNCFT)",
        "Name[x-test]": "xxSociété Nationale des Chemins de Fer Tunisiens (SNCFT)xx"
    },
    "filter": {
        "geo": [
            [
                7.5435563000000005,
                37.5308159
            ],
            [
                11.5933919,
                37.5308159
            ],
            [
                11.5933919,
                30.2440135
            ],
            [
                7.5435563000000005,
                30.2440135
            ]
        ]
    },
    "options": {
        "endpoint": "https://planner.sncft.com.tn/otp/routers/default/"
    },
    "type": "otp_rest"
}
