[
    {
        "sections": [
            {
                "disruptionEffect": "NormalService",
                "distance": 7009,
                "expectedArrivalTime": "2019-11-11T21:39:00",
                "expectedDepartureTime": "2019-11-11T21:26:00",
                "from": {
                    "identifier": {
                        "testid": "3001391"
                    },
                    "latitude": 49.49388122558594,
                    "locality": "Nürnberg",
                    "longitude": 11.079079627990723,
                    "name": "Nürnberg Flughafen"
                },
                "intermediateStops": [
                    {
                        "disruptionEffect": "NormalService",
                        "expectedDepartureTime": "2019-11-11T21:28:00",
                        "scheduledDepartureTime": "2019-11-11T21:28:00",
                        "scheduledPlatform": "1",
                        "stopPoint": {
                            "identifier": {
                                "testid": "3001320"
                            },
                            "latitude": 49.485328674316406,
                            "longitude": 11.105039596557617,
                            "name": "Nürnberg Ziegelstein"
                        }
                    },
                    {
                        "disruptionEffect": "NormalService",
                        "expectedDepartureTime": "2019-11-11T21:30:00",
                        "scheduledDepartureTime": "2019-11-11T21:30:00",
                        "scheduledPlatform": "1",
                        "stopPoint": {
                            "identifier": {
                                "testid": "3001324"
                            },
                            "latitude": 49.47829055786133,
                            "longitude": 11.109569549560547,
                            "name": "Nürnberg Herrnhütte"
                        }
                    },
                    {
                        "disruptionEffect": "NormalService",
                        "expectedDepartureTime": "2019-11-11T21:32:00",
                        "scheduledDepartureTime": "2019-11-11T21:32:00",
                        "scheduledPlatform": "1",
                        "stopPoint": {
                            "identifier": {
                                "testid": "80003151"
                            },
                            "latitude": 49.47246170043945,
                            "longitude": 11.104439735412598,
                            "name": "Nürnberg Nordost"
                        }
                    },
                    {
                        "disruptionEffect": "NormalService",
                        "scheduledPlatform": "1",
                        "expectedDepartureTime": "2019-11-11T21:33:00",
                        "scheduledDepartureTime": "2019-11-11T21:33:00",
                        "scheduledPlatform": "1",
                        "stopPoint": {
                            "identifier": {
                                "testid": "3000341"
                            },
                            "latitude": 49.464900970458984,
                            "longitude": 11.100529670715332,
                            "name": "Nürnberg Schoppershof"
                        }
                    },
                    {
                        "disruptionEffect": "NormalService",
                        "expectedDepartureTime": "2019-11-11T21:35:00",
                        "scheduledDepartureTime": "2019-11-11T21:34:00",
                        "scheduledPlatform": "1",
                        "stopPoint": {
                            "identifier": {
                                "testid": "3000340"
                            },
                            "latitude": 49.460960388183594,
                            "longitude": 11.093199729919434,
                            "name": "Nürnberg Rennweg"
                        }
                    },
                    {
                        "disruptionEffect": "NormalService",
                        "expectedDepartureTime": "2019-11-11T21:36:00",
                        "scheduledDepartureTime": "2019-11-11T21:36:00",
                        "scheduledPlatform": "1",
                        "stopPoint": {
                            "identifier": {
                                "testid": "3000332"
                            },
                            "latitude": 49.45685958862305,
                            "longitude": 11.089420318603516,
                            "name": "Nürnberg Rathenauplatz"
                        }
                    },
                    {
                        "disruptionEffect": "NormalService",
                        "expectedDepartureTime": "2019-11-11T21:37:00",
                        "scheduledDepartureTime": "2019-11-11T21:37:00",
                        "scheduledPlatform": "1",
                        "stopPoint": {
                            "identifier": {
                                "testid": "3000333"
                            },
                            "latitude": 49.452579498291016,
                            "longitude": 11.086830139160156,
                            "name": "Nürnberg Wöhrder Wiese"
                        }
                    }
                ],
                "mode": "PublicTransport",
                "notes": [
                     "Some construction works. More info on some website."
                ],
                "route": {
                    "direction": "Röthenbach",
                    "line": {
                        "mode": "Metro",
                        "modeString": "U-Bahn",
                        "name": "U2"
                    }
                },
                "scheduledArrivalPlatform": "1",
                "scheduledArrivalTime": "2019-11-11T21:39:00",
                "scheduledDeparturePlatform": "2",
                "scheduledDepartureTime": "2019-11-11T21:26:00",
                "to": {
                    "identifier": {
                        "testid": "80001020"
                    },
                    "latitude": 49.447059631347656,
                    "locality": "Nürnberg",
                    "longitude": 11.082220077514648,
                    "name": "Nürnberg Hbf"
                }
            },
            {
                "disruptionEffect": "NormalService",
                "distance": 4146,
                "from": {
                    "identifier": {
                        "testid": "80001020"
                    },
                    "latitude": 49.446388244628906,
                    "locality": "Nürnberg",
                    "longitude": 11.081649780273438,
                    "name": "Nürnberg Hbf"
                },
                "mode": "PublicTransport",
                "route": {
                    "direction": "Langwasser Süd",
                    "line": {
                        "mode": "Metro",
                        "modeString": "U-Bahn",
                        "name": "U1"
                    }
                },
                "scheduledArrivalPlatform": "2",
                "scheduledArrivalTime": "2019-11-11T21:59:00",
                "scheduledDeparturePlatform": "1",
                "scheduledDepartureTime": "2019-11-11T21:50:00",
                "to": {
                    "identifier": {
                        "testid": "3001502"
                    },
                    "latitude": 49.41590118408203,
                    "locality": "Nürnberg",
                    "longitude": 11.114660263061523,
                    "name": "Nürnberg Messe"
                }
            }
        ]
    }
]
