{
    "name": "12",
    "length": 436,
    "sections": [
        {
            "begin": 0,
            "end": 0.17000000178813934,
            "name": "A"
        },
        {
            "begin": 0.17000000178813934,
            "end": 0.3199999928474426,
            "name": "B"
        },
        {
            "begin": 0.3199999928474426,
            "end": 0.44999998807907104,
            "name": "C"
        },
        {
            "begin": 0.44999998807907104,
            "end": 0.5600000023841858,
            "name": "D"
        },
        {
            "begin": 0.5600000023841858,
            "end": 0.6800000071525574,
            "name": "E"
        },
        {
            "begin": 0.6800000071525574,
            "end": 0.800000011920929,
            "name": "F"
        },
        {
            "begin": 0.800000011920929,
            "end": 1,
            "name": "G"
        }
    ]
}
